{
    "name": "WpPopularpostssummary",
    "fields": [
        {
            "fieldName": "postid",
            "fieldType": "Long"
        },
        {
            "fieldName": "pageviews",
            "fieldType": "Long"
        },
        {
            "fieldName": "viewDate",
            "fieldType": "LocalDate"
        },
        {
            "fieldName": "viewDatetime",
            "fieldType": "Instant"
        }
    ],
    "relationships": [],
    "changelogDate": "20181107100150",
    "entityTableName": "wp_popularpostssummary",
    "dto": "mapstruct",
    "pagination": "infinite-scroll",
    "service": "serviceImpl",
    "jpaMetamodelFiltering": false,
    "fluentMethods": true,
    "clientRootFolder": "",
    "applications": "*"
}